{
    "id" : "robotics",
    "name" : "Robotics",
    "requisites" : {
        "techs" : {
            "industrialization" : 2
        },
        "time" : 0.3,
        "cost" : {
            "metals" : 1000,
            "exotics" : 120,
            "power" : 200
        }
    }
}
